[
    {
        "id": 5,
        "username": "tool_generator_000001",
        "firstname": "Hanna",
        "lastname": "Becker",
        "fullname": "Hanna Becker",
        "email": "tool_generator_000001@example.com",
        "department": "",
        "idnumber": "1",
        "firstaccess": 0,
        "lastaccess": 0,
        "lastcourseaccess": 0,
        "profileimageurlsmall": "https://moodle.nl/theme/image.php/boost/core/1622013023/u/f2",
        "profileimageurl": "https://moodle.nl/theme/image.php/boost/core/1622013023/u/f1",
        "groups": [],
        "roles": [
            {
                "roleid": 5,
                "name": "",
                "shortname": "student",
                "sortorder": 0
            }
        ],
        "enrolledcourses": [
            {
                "id": 4,
                "fullname": "Course to test with",
                "shortname": "Test course"
            },
            {
                "id": 3,
                "fullname": "Voorbeeld cursus",
                "shortname": "Voorbeeld"
            }
        ]
    }
]
