{
    "courses": [
        {
            "id": 4,
            "fullname": "Course to test with",
            "displayname": "Course to test with",
            "shortname": "Test course",
            "categoryid": 1,
            "categoryname": "Diversen",
            "sortorder": 10001,
            "summary": "<p dir='ltr' style='text-align:left;'>Courses to test with are awesome!!!</p>",
            "summaryformat": 1,
            "summaryfiles": [],
            "overviewfiles": [],
            "showactivitydates": false,
            "showcompletionconditions": true,
            "contacts": [],
            "enrollmentmethods": [
                "manual"
            ],
            "idnumber": "",
            "format": "topics",
            "showgrades": 1,
            "newsitems": 0,
            "startdate": 1622152800,
            "enddate": 0,
            "maxbytes": 0,
            "showreports": 0,
            "visible": 1,
            "groupmode": 0,
            "groupmodeforce": 0,
            "defaultgroupingid": 0,
            "enablecompletion": 0,
            "completionnotify": 0,
            "lang": "",
            "theme": "",
            "marker": 0,
            "legacyfiles": 0,
            "calendartype": "",
            "timecreated": 1622195304,
            "timemodified": 1622195304,
            "requested": 0,
            "cacherev": 1622195321,
            "filters": [
                {
                    "filter": "displayh5p",
                    "localstate": 0,
                    "inheritedstate": 1
                },
                {
                    "filter": "activitynames",
                    "localstate": 0,
                    "inheritedstate": 1
                },
                {
                    "filter": "mathjaxloader",
                    "localstate": 0,
                    "inheritedstate": 1
                },
                {
                    "filter": "emoticon",
                    "localstate": 0,
                    "inheritedstate": 1
                },
                {
                    "filter": "urltolink",
                    "localstate": 0,
                    "inheritedstate": 1
                },
                {
                    "filter": "mediaplugin",
                    "localstate": 0,
                    "inheritedstate": 1
                }
            ],
            "courseformatoptions": [
                {
                    "name": "hiddensections",
                    "value": 0
                },
                {
                    "name": "coursedisplay",
                    "value": 0
                }
            ]
        }
    ],
    "warnings": []
}
